{
  "results": [
    {
      "vote_count": 37,
      "id": 400710,
      "video": false,
      "vote_average": 5.3,
      "title": "Flatliners",
      "popularity": 40.682571,
      "poster_path": "/e9NHATN0TJW6ZZPLLWFsKdilVl1.jpg",
      "original_language": "en",
      "original_title": "Flatliners",
      "genre_ids": [
        18,
        878
      ],
      "backdrop_path": "/A9L23hwp8yLUbMci2jIkX4RV6kg.jpg",
      "adult": false,
      "overview": "Five medical students, hoping to gain insight into the mystery of what lies beyond the confines of life, embark on a daring and dangerous experiment. By stopping their hearts for short periods of time, each triggers a near-death experience. As the investigation becomes more and more perilous, they are forced to confront the sins of their pasts, as well as contend with the paranormal consequences of trespassing to the other side.",
      "release_date": "2017-09-28"
    },
    {
      "vote_count": 4139,
      "id": 78,
      "video": false,
      "vote_average": 7.9,
      "title": "Blade Runner",
      "popularity": 39.945694,
      "poster_path": "/p64TtbZGCElxQHpAMWmDHkWJlH2.jpg",
      "original_language": "en",
      "original_title": "Blade Runner",
      "genre_ids": [
        878,
        18,
        53
      ],
      "backdrop_path": "/tv8J6uCTKsTlASa8luJqrFiJlBX.jpg",
      "adult": false,
      "overview": "In the smog-choked dystopian Los Angeles of 2019, blade runner Rick Deckard is called out of retirement to terminate a quartet of replicants who have escaped to Earth seeking their creator for a way to extend their short life spans.",
      "release_date": "1982-06-25"
    },
    {
      "vote_count": 0,
      "id": 442076,
      "video": false,
      "vote_average": 0,
      "title": "The Void",
      "popularity": 39.598628,
      "poster_path": "/4FnOnf14qlWpQiFWdryk6UtjENU.jpg",
      "original_language": "en",
      "original_title": "The Void",
      "genre_ids": [
        27
      ],
      "backdrop_path": null,
      "adult": false,
      "overview": "A man is alone in his apartment as an ominous hourglass runs out, and strange things start to happen.",
      "release_date": "2017-11-01"
    },
    {
      "vote_count": 29,
      "id": 335360,
      "video": false,
      "vote_average": 7.7,
      "title": "My Little Pony: The Movie",
      "popularity": 39.194842,
      "poster_path": "/15WbvKx7B7FiLZheK49Xc05oRIX.jpg",
      "original_language": "en",
      "original_title": "My Little Pony: The Movie",
      "genre_ids": [
        12,
        16,
        10751,
        14
      ],
      "backdrop_path": "/t9QTd0V3rbv6W25QbHJuC6zbIo1.jpg",
      "adult": false,
      "overview": "A new dark force threatens Ponyville, and the Mane 6 – Twilight Sparkle, Applejack, Rainbow Dash, Pinkie Pie, Fluttershy and Rarity – embark on an unforgettable journey beyond Equestria where they meet new friends and exciting challenges on a quest to use the magic of friendship and save their home.",
      "release_date": "2017-10-05"
    },
    {
      "vote_count": 2,
      "id": 280489,
      "video": false,
      "vote_average": 0,
      "title": "Mettle of Honor",
      "popularity": 38.822743,
      "poster_path": null,
      "original_language": "en",
      "original_title": "Mettle of Honor",
      "genre_ids": [
        18,
        12,
        28,
        80
      ],
      "backdrop_path": "/idWN5QfOgAlWQsuKqyzkJWs7D6p.jpg",
      "adult": false,
      "overview": "When a gang of kidnappers takes their young hostage to an abandoned building to await a $100 million ransom, a homeless Vietnam vet who lives in the building becomes her only hope for salvation.",
      "release_date": "2017-11-01"
    },
    {
      "vote_count": 62,
      "id": 369192,
      "video": false,
      "vote_average": 7.3,
      "title": "Battle of the Sexes",
      "popularity": 38.395983,
      "poster_path": "/v3y96NrwyBxqNhVpHIBZix0uPKP.jpg",
      "original_language": "en",
      "original_title": "Battle of the Sexes",
      "genre_ids": [
        35,
        18,
        36
      ],
      "backdrop_path": "/3G5QZHCJyAtGkJhttbxUfWDdh3v.jpg",
      "adult": false,
      "overview": "The true story of the 1973 tennis match between World number one Billie Jean King and ex-champ and serial hustler Bobby Riggs.",
      "release_date": "2017-09-22"
    },
    {
      "vote_count": 6,
      "id": 353575,
      "video": false,
      "vote_average": 0,
      "title": "LBJ",
      "popularity": 35.881987,
      "poster_path": "/o0ofwOnVHbcR8WhZtB2y7UkM1Qm.jpg",
      "original_language": "en",
      "original_title": "LBJ",
      "genre_ids": [
        18
      ],
      "backdrop_path": "/88nJDIsm9H9wvxrQLbdXBxsgXuZ.jpg",
      "adult": false,
      "overview": "The story of U.S. President Lyndon Baines Johnson from his young days in West Texas to the White House.",
      "release_date": "2017-11-03"
    },
    {
      "vote_count": 1,
      "id": 391713,
      "video": false,
      "vote_average": 9,
      "title": "Lady Bird",
      "popularity": 35.624507,
      "poster_path": "/pVtoXPA2zqNTeaR8MOsrD1XvUXK.jpg",
      "original_language": "en",
      "original_title": "Lady Bird",
      "genre_ids": [
        35,
        18
      ],
      "backdrop_path": "/gDcu0DkF7atjWbJtfpw43yZrNoq.jpg",
      "adult": false,
      "overview": "Christine \"Lady Bird\" McPherson, a fiercely independent teenager, tries to make her own way in the world while wanting to get out of her hometown of Sacramento, California & to get away from her complicated mother & recently-unemployed father.",
      "release_date": "2017-09-08"
    },
    {
      "vote_count": 0,
      "id": 447682,
      "video": false,
      "vote_average": 0,
      "title": "Boundaries",
      "popularity": 35.080409,
      "poster_path": null,
      "original_language": "en",
      "original_title": "Boundaries",
      "genre_ids": [
        35,
        18
      ],
      "backdrop_path": null,
      "adult": false,
      "overview": "Single mom Laura, along with her awkward 14 year-old son Henry is forced to drive Jack, her estranged, care-free pot dealing father across country after he's kicked out of yet another nursing home.",
      "release_date": "2017-11-01"
    },
    {
      "vote_count": 9,
      "id": 392982,
      "video": false,
      "vote_average": 7.7,
      "title": "Marshall",
      "popularity": 33.591619,
      "poster_path": "/2z9oNW3TE5H5woLozFwfxlRRc0b.jpg",
      "original_language": "en",
      "original_title": "Marshall",
      "genre_ids": [
        18
      ],
      "backdrop_path": "/kIxqYXdVbWvU4jt6jYrataAUWmR.jpg",
      "adult": false,
      "overview": "Thurgood Marshall, the first African-American Supreme Court Justice, battles through one of his career-defining cases.",
      "release_date": "2017-10-13"
    },
    {
      "vote_count": 0,
      "id": 411976,
      "video": false,
      "vote_average": 0,
      "title": "Novitiate",
      "popularity": 33.036479,
      "poster_path": "/eZ9BbRy4YGFM1yvx6ZDO7qzILJ.jpg",
      "original_language": "en",
      "original_title": "Novitiate",
      "genre_ids": [
        18
      ],
      "backdrop_path": "/nKUM7nl7Ux00tVyfZZaMJ8iS4XH.jpg",
      "adult": false,
      "overview": "In the early 1960s, during the Vatican II era, a young woman training to become a nun struggles with issues of faith, sexuality and the changing church.",
      "release_date": "2017-10-27"
    },
    {
      "vote_count": 440,
      "id": 378236,
      "video": false,
      "vote_average": 5.7,
      "title": "The Emoji Movie",
      "popularity": 32.629346,
      "poster_path": "/f5pF4OYzh4wb1dYL2ARQNdqUsEZ.jpg",
      "original_language": "en",
      "original_title": "The Emoji Movie",
      "genre_ids": [
        35,
        10751,
        16
      ],
      "backdrop_path": "/kTrgxhRSj2sun89bDbnGCPBiey6.jpg",
      "adult": false,
      "overview": "Gene, a multi-expressional emoji, sets out on a journey to become a normal emoji.",
      "release_date": "2017-07-28"
    },
    {
      "vote_count": 0,
      "id": 443128,
      "video": false,
      "vote_average": 0,
      "title": "Islam and the Future of Tolerance",
      "popularity": 29.694254,
      "poster_path": "/wefqVXMGq6PPtfki4rUInym3H94.jpg",
      "original_language": "en",
      "original_title": "Islam and the Future of Tolerance",
      "genre_ids": [
        99
      ],
      "backdrop_path": null,
      "adult": false,
      "overview": "In the thick of a controversial war of ideas, two enlightening figures, Sam Harris, an atheist and a critic of religion, and Maajid Nawaz, an Islamist-turned-liberal activist, partake in an engaging dialogue on the state of Islam, its potential reform, the militant ideology of Islamism, and where all this lays in a secular world.",
      "release_date": "2017-10-22"
    },
    {
      "vote_count": 0,
      "id": 477924,
      "video": false,
      "vote_average": 0,
      "title": "Erosion",
      "popularity": 29.470304,
      "poster_path": "/6s3oOA52vZoy4UyA0HsZWyR3OzL.jpg",
      "original_language": "sv",
      "original_title": "Erosion",
      "genre_ids": [
        18
      ],
      "backdrop_path": "/vGRCu3NjrRmu4FTyDtUniCGhBbj.jpg",
      "adult": false,
      "overview": "The story of a young girl's struggle to find a peace of mind.",
      "release_date": "2017-10-21"
    },
    {
      "vote_count": 23,
      "id": 398818,
      "video": false,
      "vote_average": 8.3,
      "title": "Call Me by Your Name",
      "popularity": 26.81886,
      "poster_path": "/tcNniniS4rfqrLH0oORikJfnIwY.jpg",
      "original_language": "en",
      "original_title": "Call Me by Your Name",
      "genre_ids": [
        10749,
        18
      ],
      "backdrop_path": "/8ndqvvwDVe9oDUQF1Jt6NCjAn7z.jpg",
      "adult": false,
      "overview": "Elio Perlman is spending the summer with his family at their vacation home in Lombardy, Italy. When his father hires a handsome doctoral student, the curious 17-year-old finds himself developing a growing attraction to the young man.",
      "release_date": "2017-10-27"
    },
    {
      "vote_count": 32,
      "id": 301334,
      "video": false,
      "vote_average": 6.4,
      "title": "Una",
      "popularity": 26.282777,
      "poster_path": "/xvEhxYOHf7eKzLWeorlyrg3Dpru.jpg",
      "original_language": "en",
      "original_title": "Una",
      "genre_ids": [
        18
      ],
      "backdrop_path": "/hnGM7h5pCdLFgGqg9KOrdyt5QI3.jpg",
      "adult": false,
      "overview": "When a young woman unexpectedly arrives at an older man’s workplace, looking for answers, the secrets of the past threaten to unravel his new life.",
      "release_date": "2017-03-30"
    },
    {
      "vote_count": 582,
      "id": 381283,
      "video": false,
      "vote_average": 7,
      "title": "mother!",
      "popularity": 25.214938,
      "poster_path": "/qmi2dsuoyzZdJ0WFZYQazbX8ILj.jpg",
      "original_language": "en",
      "original_title": "mother!",
      "genre_ids": [
        18,
        27
      ],
      "backdrop_path": "/uuQpQ8VDOtVL2IO4y2pR58odkS5.jpg",
      "adult": false,
      "overview": "A couple's relationship is tested when uninvited guests arrive at their home, disrupting their tranquil existence.",
      "release_date": "2017-09-13"
    },
    {
      "vote_count": 134,
      "id": 452507,
      "video": false,
      "vote_average": 6.3,
      "title": "1922",
      "popularity": 24.747558,
      "poster_path": "/q4FQOiSRhTLWulHl5Vpg37FMArH.jpg",
      "original_language": "en",
      "original_title": "1922",
      "genre_ids": [
        80,
        18,
        27,
        9648
      ],
      "backdrop_path": "/718iCD1UQ36GSG5fGqzfQ71MEFf.jpg",
      "adult": false,
      "overview": "A simple yet proud rancher in the year 1922 conspires to murder his wife for financial gain, convincing his teenage son to participate.",
      "release_date": "2017-10-20"
    },
    {
      "vote_count": 42,
      "id": 336000,
      "video": false,
      "vote_average": 6.7,
      "title": "The Glass Castle",
      "popularity": 23.705634,
      "poster_path": "/8NPP7mliHLlVMHce8SjApiRxgzm.jpg",
      "original_language": "en",
      "original_title": "The Glass Castle",
      "genre_ids": [
        18
      ],
      "backdrop_path": "/iOsuao5d4ww6PiLr6URSjrByQgV.jpg",
      "adult": false,
      "overview": "A young girl is raised in a dysfunctional family constantly on the run from the FBI. Living in poverty, she comes of age guided by her drunkard, ingenious father who distracts her with magical stories to keep her mind off the family's dire state, and her selfish, nonconformist mother who has no intention of raising a family, along with her younger brother and sister, and her other older sister. Together, they fend for each other as they mature in an unorthodox journey that is their family life.",
      "release_date": "2017-08-10"
    },
    {
      "vote_count": 6,
      "id": 430474,
      "video": false,
      "vote_average": 0,
      "title": "Deep",
      "popularity": 23.21099,
      "poster_path": "/zMZTBbBa9eevwpWoVIVHh4Gm1ij.jpg",
      "original_language": "en",
      "original_title": "Deep",
      "genre_ids": [
        16
      ],
      "backdrop_path": "/3fUule7CGt4Eq1lPPqyz3qSXa8C.jpg",
      "adult": false,
      "overview": "In 2100, when humanity has abandoned the earth, a colony of extravagant creatures still thrives in the deepest abyss of the ocean.",
      "release_date": "2017-11-01"
    }
  ],
  "page": 3,
  "total_results": 1071,
  "dates": {
    "maximum": "2017-11-09",
    "minimum": "2017-09-22"
  },
  "total_pages": 3
}