{
  "results": [
    {
      "vote_count": 3,
      "id": 322525,
      "video": false,
      "vote_average": 1,
      "title": "Laddie",
      "popularity": 144.864308,
      "poster_path": "/in4tn7sdKX2sqTQ9yfVmuMV9yHu.jpg",
      "original_language": "en",
      "original_title": "Laddie",
      "genre_ids": [
        99
      ],
      "backdrop_path": null,
      "adult": false,
      "overview": "Profile of the producer and former studio head of 20th Century Fox in the 1970s, Alan Ladd Jr.",
      "release_date": "2017-10-20"
    },
    {
      "vote_count": 4,
      "id": 347629,
      "video": false,
      "vote_average": 4,
      "title": "Thank You for Your Service",
      "popularity": 140.891933,
      "poster_path": "/3AJfmBiEXVY7YmxRx2NSdbjuVDc.jpg",
      "original_language": "en",
      "original_title": "Thank You for Your Service",
      "genre_ids": [
        18,
        10752
      ],
      "backdrop_path": "/7KpA2BswBFHLR7yIexkuVhpAK3x.jpg",
      "adult": false,
      "overview": "A look at how Post Traumatic Stress Disorder affects American servicemen and women returning home from war.",
      "release_date": "2017-10-26"
    },
    {
      "vote_count": 5057,
      "id": 76338,
      "video": false,
      "vote_average": 6.7,
      "title": "Thor: The Dark World",
      "popularity": 124.864097,
      "poster_path": "/bnX5PqAdQZRXSw3aX3DutDcdso5.jpg",
      "original_language": "en",
      "original_title": "Thor: The Dark World",
      "genre_ids": [
        28,
        12,
        14
      ],
      "backdrop_path": "/3FweBee0xZoY77uO1bhUOlQorNH.jpg",
      "adult": false,
      "overview": "Thor fights to restore order across the cosmos… but an ancient race led by the vengeful Malekith returns to plunge the universe back into darkness. Faced with an enemy that even Odin and Asgard cannot withstand, Thor must embark on his most perilous and personal journey yet, one that will reunite him with Jane Foster and force him to sacrifice everything to save us all.",
      "release_date": "2013-10-29"
    },
    {
      "vote_count": 11,
      "id": 421131,
      "video": false,
      "vote_average": 8.5,
      "title": "The Carmilla Movie",
      "popularity": 100.847386,
      "poster_path": "/sSQlCNbF43nkOnuFsXhDq08Tw0c.jpg",
      "original_language": "en",
      "original_title": "The Carmilla Movie",
      "genre_ids": [
        12,
        35,
        14,
        10749
      ],
      "backdrop_path": "/AjWSgCRy7FQeViVHiN0jPZWU9Ur.jpg",
      "adult": false,
      "overview": "It has been five years since Laura and Carmilla vanquished the apocalypse and Carmilla became a bonafide mortal human. They have settled in to a cozy apartment in downtown Toronto, Laura continues to hone her journalism skills while Carmilla adjusts to a non-vampire lifestyle. Their domestic bliss is suddenly ruptured when Carmilla begins to show signs of \"re-vamping\" – from a fondness for bloody treats to accidental biting – while Laura has started having bizarre, ghostly dreams. The couple must now enlist their old friends from Silas University to uncover the unknown supernatural threat and save humanity – including Carmilla's.",
      "release_date": "2017-10-26"
    },
    {
      "vote_count": 5,
      "id": 392044,
      "video": false,
      "vote_average": 4.9,
      "title": "Murder on the Orient Express",
      "popularity": 91.488199,
      "poster_path": "/iBlfxlw8qwtUS0R8YjIU7JtM6LM.jpg",
      "original_language": "en",
      "original_title": "Murder on the Orient Express",
      "genre_ids": [
        80,
        18,
        9648
      ],
      "backdrop_path": "/tvKcA4OFUiZkNeTJmmTkNqKHMMg.jpg",
      "adult": false,
      "overview": "Genius Belgian detective Hercule Poirot investigates the murder of an American tycoon aboard the Orient Express train.",
      "release_date": "2017-11-03"
    },
    {
      "vote_count": 1049,
      "id": 343668,
      "video": false,
      "vote_average": 7.2,
      "title": "Kingsman: The Golden Circle",
      "popularity": 86.906589,
      "poster_path": "/pKESfn2Pdy0b7drvZHQb7UzgqoY.jpg",
      "original_language": "en",
      "original_title": "Kingsman: The Golden Circle",
      "genre_ids": [
        28,
        12,
        35
      ],
      "backdrop_path": "/uExPmkOHJySrbJyJDJylHDqaT58.jpg",
      "adult": false,
      "overview": "When an attack on the Kingsman headquarters takes place and a new villain rises, Eggsy and Merlin are forced to work together with the American agency known as the Statesman to save the world.",
      "release_date": "2017-09-20"
    },
    {
      "vote_count": 925,
      "id": 341013,
      "video": false,
      "vote_average": 6.2,
      "title": "Atomic Blonde",
      "popularity": 82.169169,
      "poster_path": "/kV9R5h0Yct1kR8Hf8sJ1nX0Vz4x.jpg",
      "original_language": "en",
      "original_title": "Atomic Blonde",
      "genre_ids": [
        53,
        9648,
        28
      ],
      "backdrop_path": "/lj3wkYkJGkfmDfXkKrVarSJpFD4.jpg",
      "adult": false,
      "overview": "An undercover MI6 agent is sent to Berlin during the Cold War to investigate the murder of a fellow agent and recover a missing list of double agents.",
      "release_date": "2017-07-26"
    },
    {
      "vote_count": 864,
      "id": 260514,
      "video": false,
      "vote_average": 6.7,
      "title": "Cars 3",
      "popularity": 81.411805,
      "poster_path": "/fyy1nDC8wm553FCiBDojkJmKLCs.jpg",
      "original_language": "en",
      "original_title": "Cars 3",
      "genre_ids": [
        10751,
        35,
        16,
        12
      ],
      "backdrop_path": "/rND0GSv8X2Zzs7VhyFAs9BCEmYE.jpg",
      "adult": false,
      "overview": "Blindsided by a new generation of blazing-fast racers, the legendary Lightning McQueen is suddenly pushed out of the sport he loves. To get back in the game, he will need the help of an eager young race technician with her own plan to win, inspiration from the late Fabulous Hudson Hornet, and a few unexpected turns. Proving that #95 isn't through yet will test the heart of a champion on Piston Cup Racing’s biggest stage!",
      "release_date": "2017-06-15"
    },
    {
      "vote_count": 7,
      "id": 401898,
      "video": false,
      "vote_average": 5.6,
      "title": "Thelma",
      "popularity": 68.365133,
      "poster_path": "/k0CDG9qtnI2EamhFcwgik7s6FRe.jpg",
      "original_language": "no",
      "original_title": "Thelma",
      "genre_ids": [
        10749,
        14,
        53
      ],
      "backdrop_path": "/fSyNyntZmtNb1Bn5NNbvqR7DRsx.jpg",
      "adult": false,
      "overview": "A college student starts to experience extreme seizures while studying at a university in Oslo, Norway. She soon learns that the violent episodes are a symptom of inexplicable, and often dangerous, supernatural abilities.",
      "release_date": "2017-09-15"
    },
    {
      "vote_count": 8,
      "id": 431530,
      "video": false,
      "vote_average": 5,
      "title": "A Bad Moms Christmas",
      "popularity": 66.578861,
      "poster_path": "/gPNHolu7AGnrB7r5kvJRRTfwMFR.jpg",
      "original_language": "en",
      "original_title": "A Bad Moms Christmas",
      "genre_ids": [
        35
      ],
      "backdrop_path": "/oR4u6ZlLx0nVUuq1OfYKuwVhtkg.jpg",
      "adult": false,
      "overview": "In this comedy a few  titular under-appreciated and over-burdened friends cope with the stresses of the most wonderful time of year as their own mothers visit for the holidays.",
      "release_date": "2017-11-03"
    },
    {
      "vote_count": 1137,
      "id": 372058,
      "video": false,
      "vote_average": 8.5,
      "title": "Your Name.",
      "popularity": 58.176448,
      "poster_path": "/xq1Ugd62d23K2knRUx6xxuALTZB.jpg",
      "original_language": "ja",
      "original_title": "君の名は。",
      "genre_ids": [
        10749,
        16,
        18
      ],
      "backdrop_path": "/7OMAfDJikBxItZBIug0NJig5DHD.jpg",
      "adult": false,
      "overview": "High schoolers Mitsuha and Taki are complete strangers living separate lives. But one night, they suddenly switch places. Mitsuha wakes up in Taki’s body, and he in hers. This bizarre occurrence continues to happen randomly, and the two must adjust their lives around each other.",
      "release_date": "2016-08-26"
    },
    {
      "vote_count": 18,
      "id": 354912,
      "video": false,
      "vote_average": 8.2,
      "title": "Coco",
      "popularity": 58.030524,
      "poster_path": "/eKi8dIrr8voobbaGzDpe8w0PVbC.jpg",
      "original_language": "en",
      "original_title": "Coco",
      "genre_ids": [
        10751,
        16,
        12
      ],
      "backdrop_path": "/gqk6fLXiJnuHRF3IC2sNAfnRJo6.jpg",
      "adult": false,
      "overview": "The discovery of a generations-old mystery leads to a most extraordinary and surprising family reunion.",
      "release_date": "2017-10-27"
    },
    {
      "vote_count": 0,
      "id": 419680,
      "video": false,
      "vote_average": 0,
      "title": "Daddy's Home 2",
      "popularity": 53.623614,
      "poster_path": "/rF2IoKL0IFmumEXQFUuB8LajTYP.jpg",
      "original_language": "en",
      "original_title": "Daddy's Home 2",
      "genre_ids": [
        18,
        35
      ],
      "backdrop_path": "/lMDyuHzBhx3zNAv48vYzmgcJCCD.jpg",
      "adult": false,
      "overview": "Brad and Dusty must deal with their intrusive fathers during the holidays.",
      "release_date": "2017-11-09"
    },
    {
      "vote_count": 0,
      "id": 455847,
      "video": false,
      "vote_average": 0,
      "title": "Bad Grandmas",
      "popularity": 52.124614,
      "poster_path": "/ldYHMM1yuNIOpCOiW9m6fiz3Zmm.jpg",
      "original_language": "en",
      "original_title": "Bad Grandmas",
      "genre_ids": [
        35
      ],
      "backdrop_path": null,
      "adult": false,
      "overview": "Four grandmothers accidentally kill a conman and, to cover it up, they get rid of the body. When the conman's partner shows up, things go south.",
      "release_date": "2017-11-03"
    },
    {
      "vote_count": 117,
      "id": 300665,
      "video": false,
      "vote_average": 5.4,
      "title": "Leatherface",
      "popularity": 49.394717,
      "poster_path": "/qdRq1EygZK2LIYM6v29ai9uBOhE.jpg",
      "original_language": "en",
      "original_title": "Leatherface",
      "genre_ids": [
        27,
        53
      ],
      "backdrop_path": "/oE91eSoOlzfKpXPfzRwr9cMwEON.jpg",
      "adult": false,
      "overview": "A young nurse is kidnapped by a group of violent teens who escape from a mental hospital and take her on the road trip from hell. Pursued by an equally deranged lawman out for revenge, one of the teens is destined for tragedy and horrors that will destroy his mind, moulding him into a monster named 'Leatherface'.",
      "release_date": "2017-09-14"
    },
    {
      "vote_count": 1259,
      "id": 396422,
      "video": false,
      "vote_average": 6.4,
      "title": "Annabelle: Creation",
      "popularity": 48.419959,
      "poster_path": "/tb86j8jVCVsdZnzf8I6cIi65IeM.jpg",
      "original_language": "en",
      "original_title": "Annabelle: Creation",
      "genre_ids": [
        53,
        27
      ],
      "backdrop_path": "/o8u0NyEigCEaZHBdCYTRfXR8U4i.jpg",
      "adult": false,
      "overview": "Several years after the tragic death of their little girl, a dollmaker and his wife welcome a nun and several girls from a shuttered orphanage into their home, soon becoming the target of the dollmaker's possessed creation, Annabelle.",
      "release_date": "2017-08-03"
    },
    {
      "vote_count": 0,
      "id": 479709,
      "video": false,
      "vote_average": 0,
      "title": "Get My Gun",
      "popularity": 46.405174,
      "poster_path": "/nZepGNJAw9JQOCSJSZTxnPmvpa.jpg",
      "original_language": "en",
      "original_title": "Get My Gun",
      "genre_ids": [
        53,
        27
      ],
      "backdrop_path": null,
      "adult": false,
      "overview": "After an innocent prank leaves Amanda pregnant and out of a job, she finds herself on the verge of motherhood and the target of a psychotic stalker who will stop at nothing to get her hands on the unborn child.",
      "release_date": "2017-11-03"
    },
    {
      "vote_count": 6,
      "id": 418680,
      "video": false,
      "vote_average": 8.2,
      "title": "Goodbye Christopher Robin",
      "popularity": 44.839121,
      "poster_path": "/hJA02CVOSKElCivKPw4NRT0Pq1O.jpg",
      "original_language": "en",
      "original_title": "Goodbye Christopher Robin",
      "genre_ids": [
        10751,
        36
      ],
      "backdrop_path": "/tUVVEGe16K5hfN7jH5MhJYjbCt2.jpg",
      "adult": false,
      "overview": "The behind the scenes story of the life of A.A. Milne and the creation of the Winnie the Pooh stories inspired by his son Christopher Robin.",
      "release_date": "2017-09-29"
    },
    {
      "vote_count": 36,
      "id": 379149,
      "video": false,
      "vote_average": 6.3,
      "title": "The Foreigner",
      "popularity": 42.086485,
      "poster_path": "/rwM4hzrmc5HiWfQD9ls9DL4QgGl.jpg",
      "original_language": "en",
      "original_title": "The Foreigner",
      "genre_ids": [
        53,
        28
      ],
      "backdrop_path": "/p6anj7RQe03Gq2hSIxkkoozPMSH.jpg",
      "adult": false,
      "overview": "Quan is a humble London businessman whose long-buried past erupts in a revenge-fueled vendetta when the only person left for him to love -- his teenage daughter -- dies in a senseless act of politically motivated terrorism. His relentless search to find the terrorists leads to a cat-and-mouse conflict with a British government official whose own past may hold the clues to the identities of the elusive killers.",
      "release_date": "2017-09-24"
    },
    {
      "vote_count": 209,
      "id": 378064,
      "video": false,
      "vote_average": 8.2,
      "title": "A Silent Voice",
      "popularity": 41.926601,
      "poster_path": "/drlyoSKDOPnxzJFrRWGqzDsyJvR.jpg",
      "original_language": "ja",
      "original_title": "聲の形",
      "genre_ids": [
        16,
        18
      ],
      "backdrop_path": "/geINneHhMbGDeDCGun0elRjVQ1Z.jpg",
      "adult": false,
      "overview": "Shouya Ishida starts bullying the new girl in class, Shouko Nishimiya, because she is deaf. But as the teasing continues, the rest of the class starts to turn on Shouya for his lack of compassion. When they leave elementary school, Shouko and Shouya do not speak to each other again... until an older, wiser Shouya, tormented by his past behaviour, decides he must see Shouko once more. He wants to atone for his sins, but is it already too late...?",
      "release_date": "2016-09-17"
    }
  ],
  "page": 2,
  "total_results": 1071,
  "dates": {
    "maximum": "2017-11-09",
    "minimum": "2017-09-22"
  },
  "total_pages": 3
}