{
  "results": [
    {
      "vote_count": 3216,
      "id": 346364,
      "video": false,
      "vote_average": 7.3,
      "title": "It",
      "popularity": 831.126841,
      "poster_path": "/9E2y5Q7WlCVNEhP5GiVTjhEhx1o.jpg",
      "original_language": "en",
      "original_title": "It",
      "genre_ids": [
        18,
        27,
        53
      ],
      "backdrop_path": "/tcheoA2nPATCm2vvXw2hVQoaEFD.jpg",
      "adult": false,
      "overview": "In a small town in Maine, seven children known as The Losers Club come face to face with life problems, bullies and a monster that takes the shape of a clown called Pennywise.",
      "release_date": "2017-09-05"
    },
    {
      "vote_count": 669,
      "id": 284053,
      "video": false,
      "vote_average": 7.6,
      "title": "Thor: Ragnarok",
      "popularity": 483.161487,
      "poster_path": "/oSLd5GYGsiGgzDPKTwQh7wamO8t.jpg",
      "original_language": "en",
      "original_title": "Thor: Ragnarok",
      "genre_ids": [
        28,
        12,
        14,
        878
      ],
      "backdrop_path": "/wBzMnQ01R9w58W6ucltdYfOyP4j.jpg",
      "adult": false,
      "overview": "Thor is imprisoned on the other side of the universe and finds himself in a race against time to get back to Asgard to stop Ragnarok, the destruction of his homeworld and the end of Asgardian civilization, at the hands of an all-powerful new threat, the ruthless Hela.",
      "release_date": "2017-10-25"
    },
    {
      "vote_count": 171,
      "id": 440021,
      "video": false,
      "vote_average": 6.4,
      "title": "Happy Death Day",
      "popularity": 418.541789,
      "poster_path": "/cTaEIUYTt52ooq9quVbAQ7NpGwo.jpg",
      "original_language": "en",
      "original_title": "Happy Death Day",
      "genre_ids": [
        27,
        9648,
        53
      ],
      "backdrop_path": "/eGx5OfOdvM0gkHdmkLe3hcJuEIT.jpg",
      "adult": false,
      "overview": "A college student relives the day of her murder over and over again as she tries to discover her killer's identity.",
      "release_date": "2017-10-12"
    },
    {
      "vote_count": 1427,
      "id": 335984,
      "video": false,
      "vote_average": 7.5,
      "title": "Blade Runner 2049",
      "popularity": 406.816743,
      "poster_path": "/aMpyrCizvSdc0UIMblJ1srVgAEF.jpg",
      "original_language": "en",
      "original_title": "Blade Runner 2049",
      "genre_ids": [
        28,
        9648,
        878,
        53
      ],
      "backdrop_path": "/mVr0UiqyltcfqxbAUcLl9zWL8ah.jpg",
      "adult": false,
      "overview": "Thirty years after the events of the first film, a new blade runner, LAPD Officer K, unearths a long-buried secret that has the potential to plunge what's left of society into chaos. K's discovery leads him on a quest to find Rick Deckard, a former LAPD blade runner who has been missing for 30 years.",
      "release_date": "2017-10-04"
    },
    {
      "vote_count": 88,
      "id": 298250,
      "video": false,
      "vote_average": 5.8,
      "title": "Jigsaw",
      "popularity": 320.606718,
      "poster_path": "/zUbUtxiTdEgWnkXY945gtYYqBZ1.jpg",
      "original_language": "en",
      "original_title": "Jigsaw",
      "genre_ids": [
        27,
        53
      ],
      "backdrop_path": "/ytKpFaLMpFWnuSXStz1GHrtTt6R.jpg",
      "adult": false,
      "overview": "Dead bodies begin to turn up all over the city, each meeting their demise in a variety of grisly ways. All investigations begin to point the finger at deceased killer John Kramer.",
      "release_date": "2017-10-20"
    },
    {
      "vote_count": 127,
      "id": 274855,
      "video": false,
      "vote_average": 5.6,
      "title": "Geostorm",
      "popularity": 303.73643,
      "poster_path": "/nrsx0jEaBgXq4PWo7SooSnYJTv.jpg",
      "original_language": "en",
      "original_title": "Geostorm",
      "genre_ids": [
        28,
        878,
        53
      ],
      "backdrop_path": "/lhTtnsPmEYUJB7nOaTKJzYoxJ7X.jpg",
      "adult": false,
      "overview": "Gerard Butler playing a stubborn but charming satellite designer who, when the world’s climate-controlling satellites malfunction, has to work together with his estranged brother to save the world from a man-made storm of epic proportions. A trip into space follows, while on Earth a plot to assassinate the president begins to unfold.",
      "release_date": "2017-10-13"
    },
    {
      "vote_count": 2114,
      "id": 281338,
      "video": false,
      "vote_average": 6.8,
      "title": "War for the Planet of the Apes",
      "popularity": 274.803387,
      "poster_path": "/3vYhLLxrTtZLysXtIWktmd57Snv.jpg",
      "original_language": "en",
      "original_title": "War for the Planet of the Apes",
      "genre_ids": [
        18,
        878,
        10752
      ],
      "backdrop_path": "/ulMscezy9YX0bhknvJbZoUgQxO5.jpg",
      "adult": false,
      "overview": "Caesar and his apes are forced into a deadly conflict with an army of humans led by a ruthless Colonel. After the apes suffer unimaginable losses, Caesar wrestles with his darker instincts and begins his own mythic quest to avenge his kind. As the journey finally brings them face to face, Caesar and the Colonel are pitted against each other in an epic battle that will determine the fate of both their species and the future of the planet.",
      "release_date": "2017-07-11"
    },
    {
      "vote_count": 75,
      "id": 390062,
      "video": false,
      "vote_average": 5.8,
      "title": "Jungle",
      "popularity": 236.861086,
      "poster_path": "/tDgxknTVwrScxpCYyGUjXSn5NRk.jpg",
      "original_language": "en",
      "original_title": "Jungle",
      "genre_ids": [
        12,
        18,
        53
      ],
      "backdrop_path": "/go1a6YwrVTMrNNIfaRpBRp5pIzV.jpg",
      "adult": false,
      "overview": "A mysterious guide escorts an enthusiastic adventurer and his friend into the Amazon jungle, but their journey turns into a terrifying ordeal as the darkest elements of human nature and the deadliest threats of the wild force them to fight for survival.",
      "release_date": "2017-10-20"
    },
    {
      "vote_count": 355,
      "id": 337170,
      "video": false,
      "vote_average": 6.3,
      "title": "American Made",
      "popularity": 207.690464,
      "poster_path": "/8dTWj3c74RDhXfSUZpuyVNJrgS.jpg",
      "original_language": "en",
      "original_title": "American Made",
      "genre_ids": [
        35,
        28,
        80,
        53
      ],
      "backdrop_path": "/jcKzxRGYiXuS7ctTHLdw9wH8d7V.jpg",
      "adult": false,
      "overview": "The true story of pilot Barry Seal, who transported contraband for the CIA and the Medellin cartel in the 1980s.",
      "release_date": "2017-08-17"
    },
    {
      "vote_count": 129,
      "id": 372343,
      "video": false,
      "vote_average": 5.1,
      "title": "The Snowman",
      "popularity": 173.261162,
      "poster_path": "/bQHgpTVsAWjNQWS0frsl7DlzLX1.jpg",
      "original_language": "en",
      "original_title": "The Snowman",
      "genre_ids": [
        80,
        18,
        27,
        9648,
        53
      ],
      "backdrop_path": "/tAg6KUBANIVbYUpTHy5oKibhhw3.jpg",
      "adult": false,
      "overview": "Detective Harry Hole investigates the disappearance of a woman whose pink scarf is found wrapped around an ominous looking snowman.",
      "release_date": "2017-10-12"
    },
    {
      "vote_count": 24,
      "id": 399057,
      "video": false,
      "vote_average": 6,
      "title": "The Killing of a Sacred Deer",
      "popularity": 170.098469,
      "poster_path": "/lZ9I4Lv0QtdrykZ8pF42KJAdcg4.jpg",
      "original_language": "en",
      "original_title": "The Killing of a Sacred Deer",
      "genre_ids": [
        53,
        27,
        18,
        9648
      ],
      "backdrop_path": "/854uDv6rzbwF82jOtFe931SMrRs.jpg",
      "adult": false,
      "overview": "A teenager's attempts to bring a brilliant surgeon into his dysfunctional family take an unexpected turn.",
      "release_date": "2017-10-20"
    },
    {
      "vote_count": 61,
      "id": 459202,
      "video": false,
      "vote_average": 5.3,
      "title": "Boo 2! A Madea Halloween",
      "popularity": 166.59413,
      "poster_path": "/5nvP4etJ8ecQv8qZM08dK4BAzdK.jpg",
      "original_language": "en",
      "original_title": "Boo 2! A Madea Halloween",
      "genre_ids": [
        27,
        35
      ],
      "backdrop_path": "/78kN1a1AHxAPEh7hQhNjDQhLZ9W.jpg",
      "adult": false,
      "overview": "Madea and the gang encounter monsters, goblins and boogeymen at a haunted campground.",
      "release_date": "2017-10-20"
    },
    {
      "vote_count": 21,
      "id": 395458,
      "video": false,
      "vote_average": 5.5,
      "title": "Suburbicon",
      "popularity": 151.798861,
      "poster_path": "/a3IHgSwO5jWPLcGjKqbQ7pxVGkq.jpg",
      "original_language": "en",
      "original_title": "Suburbicon",
      "genre_ids": [
        28,
        35,
        80,
        9648
      ],
      "backdrop_path": "/zA5zlFVa76LdHmlFQrXaBW4XSvG.jpg",
      "adult": false,
      "overview": "A crime mystery set in the quiet family town of Suburbicon during the 1950s, where the best and worst of humanity is hilariously reflected through the deeds of seemingly ordinary people. When a home invasion turns deadly, a picture-perfect family turns to blackmail, revenge, and murder.",
      "release_date": "2017-10-27"
    },
    {
      "vote_count": 17,
      "id": 395991,
      "video": false,
      "vote_average": 5.3,
      "title": "Only the Brave",
      "popularity": 146.650882,
      "poster_path": "/lC7WdUNLOJI3sllaDGNdFy2GT8g.jpg",
      "original_language": "en",
      "original_title": "Only the Brave",
      "genre_ids": [
        18
      ],
      "backdrop_path": "/8wI0M7HDHhDsoxMCkcAVUx7O6DX.jpg",
      "adult": false,
      "overview": "Members of the Granite Mountain Hotshots battle deadly wildfires to save an Arizona town.",
      "release_date": "2017-10-19"
    },
    {
      "vote_count": 10,
      "id": 383709,
      "video": false,
      "vote_average": 5.2,
      "title": "Wonderstruck",
      "popularity": 145.570463,
      "poster_path": "/yjDAt9K3FKU1itABgIXl6YvLsVE.jpg",
      "original_language": "en",
      "original_title": "Wonderstruck",
      "genre_ids": [
        18
      ],
      "backdrop_path": "/eUSNKg5tlocYAQs5nHlDxyAefuB.jpg",
      "adult": false,
      "overview": "The story of a young boy in the Midwest is told simultaneously with a tale about a young girl in New York from fifty years ago as they both seek the same mysterious connection.",
      "release_date": "2017-10-20"
    },
    {
      "vote_count": 54,
      "id": 290512,
      "video": false,
      "vote_average": 6.5,
      "title": "The Mountain Between Us",
      "popularity": 144.156926,
      "poster_path": "/3XNfYTW4XGscI81nXMSWGsQ8cpu.jpg",
      "original_language": "en",
      "original_title": "The Mountain Between Us",
      "genre_ids": [
        10749,
        12,
        18
      ],
      "backdrop_path": "/p7mUT8Usu1kNlfd1ugk6FwKejlo.jpg",
      "adult": false,
      "overview": "Stranded after a tragic plane crash, two strangers must forge a connection to survive the extreme elements of a remote snow covered mountain. When they realize help is not coming, they embark on a perilous journey across the wilderness.",
      "release_date": "2017-10-05"
    },
    {
      "vote_count": 29,
      "id": 398175,
      "video": false,
      "vote_average": 6.9,
      "title": "Brawl in Cell Block 99",
      "popularity": 141.955296,
      "poster_path": "/bfB1J6jsjdGWKjXxKQ5hNd1OyAs.jpg",
      "original_language": "en",
      "original_title": "Brawl in Cell Block 99",
      "genre_ids": [
        28,
        80,
        53
      ],
      "backdrop_path": "/p57KuXI3GbdBEyQ26ImwMRNGyIc.jpg",
      "adult": false,
      "overview": "After working as a drug courier and getting into a brutal shootout with police, a former boxer finds himself at the mercy of his enemies as they force him to instigate violent acts that turn the prison he resides in into a battleground.",
      "release_date": "2017-10-06"
    },
    {
      "vote_count": 6,
      "id": 345923,
      "video": false,
      "vote_average": 6.5,
      "title": "All I See Is You",
      "popularity": 141.791528,
      "poster_path": "/wc9MgFWuBl3VS72w6VtiZXTgN79.jpg",
      "original_language": "en",
      "original_title": "All I See Is You",
      "genre_ids": [
        18,
        53
      ],
      "backdrop_path": "/mJHSPIvKoa1gwrdAMXWWq5utx3b.jpg",
      "adult": false,
      "overview": "A blind woman's relationship with her husband changes when she regains her sight and discovers disturbing details about themselves.",
      "release_date": "2017-08-10"
    },
    {
      "vote_count": 12,
      "id": 413857,
      "video": false,
      "vote_average": 2.5,
      "title": "Tragedy Girls",
      "popularity": 140.181481,
      "poster_path": "/qMwuplUU4dg9JBBhgML42T6x0yJ.jpg",
      "original_language": "en",
      "original_title": "Tragedy Girls",
      "genre_ids": [
        27,
        35
      ],
      "backdrop_path": "/t8mrHYeVzu4kTmgVArqL09hi5f6.jpg",
      "adult": false,
      "overview": "Following two death-obsessed teenage girls who use their online show about real-life tragedies to send their small Midwestern town into a frenzy and cement their legacy as modern horror legends.",
      "release_date": "2017-10-20"
    },
    {
      "vote_count": 1049,
      "id": 343668,
      "video": false,
      "vote_average": 7.2,
      "title": "Kingsman: The Golden Circle",
      "popularity": 139.267615,
      "poster_path": "/pKESfn2Pdy0b7drvZHQb7UzgqoY.jpg",
      "original_language": "en",
      "original_title": "Kingsman: The Golden Circle",
      "genre_ids": [
        28,
        12,
        35
      ],
      "backdrop_path": "/uExPmkOHJySrbJyJDJylHDqaT58.jpg",
      "adult": false,
      "overview": "When an attack on the Kingsman headquarters takes place and a new villain rises, Eggsy and Merlin are forced to work together with the American agency known as the Statesman to save the world.",
      "release_date": "2017-09-20"
    }
  ],
  "page": 1,
  "total_results": 1110,
  "dates": {
    "maximum": "2017-11-08",
    "minimum": "2017-09-20"
  },
  "total_pages": 56
}