{
  "page": 1,
  "total_results": 22689,
  "total_pages": 1135,
  "results": [
    {
      "vote_average": 7.1,
      "vote_count": 700,
      "id": 233063,
      "video": false,
      "media_type": "movie",
      "title": "Suck Me Shakespeer",
      "popularity": 12.465741,
      "poster_path": "/9GSGg4McYID6Ld0OMwimLr1Zx4J.jpg",
      "original_language": "de",
      "original_title": "Fack ju Göhte",
      "genre_ids": [
        35
      ],
      "backdrop_path": "/AtCGEku6kLUFmZ6JWkvXphQBQXx.jpg",
      "adult": false,
      "overview": "A comedy that follows an ex-con who lands a position at a school that sits over the spot where money from one of his earlier robberies was stashed.",
      "release_date": "2013-11-07"
    },
    {
      "vote_average": 6.5,
      "vote_count": 329,
      "id": 329263,
      "video": false,
      "media_type": "movie",
      "title": "Suck Me Shakespeer 2",
      "popularity": 9.730215,
      "poster_path": "/4jI6sIScJXMNyXxxloSfGqXckRj.jpg",
      "original_language": "de",
      "original_title": "Fack ju Göhte 2",
      "genre_ids": [
        35
      ],
      "backdrop_path": "/5z1iEwwxqv5rYIdR5BYjPiKbmiP.jpg",
      "adult": false,
      "overview": "Mr. Müller is not satisfied with his new work at the Goethe-Gesamtschule. The early getting up and correcting exams annoy him. Director Gerster wants to improve the image of the Goethe-Gesamtschule because she wants to be a symbol of the new company. To achieve this, she wants to take away the partnership from the Schillergymnasium with a Thai school. So, Mr. Müller, Mrs. Schnabelstedt and the 10b must go on a school trip to Thailand.",
      "release_date": "2015-09-10"
    },
    {
      "vote_average": 6.4,
      "vote_count": 33,
      "id": 437670,
      "video": false,
      "media_type": "movie",
      "title": "Suck Me Shakespeer 3",
      "popularity": 7.580028,
      "poster_path": "/ywCWnSOndFqq9nhE563hm15YQe0.jpg",
      "original_language": "de",
      "original_title": "Fack ju Göhte 3",
      "genre_ids": [
        35
      ],
      "backdrop_path": "/1ziXE1YhUMGRtfcQ8Z01X6Vdn0Z.jpg",
      "adult": false,
      "overview": "A comedy that follows an ex-con who lands a position at a school that sits over the spot where money from one of his earlier robberies was stashed.",
      "release_date": "2017-10-26"
    },
    {
      "vote_average": 7,
      "vote_count": 62,
      "id": 32250,
      "video": false,
      "media_type": "movie",
      "title": "Ju-on: The Curse",
      "popularity": 5.635333,
      "poster_path": "/qrfR7AYkSmWKoN81R9T9xeiGcsK.jpg",
      "original_language": "ja",
      "original_title": "呪怨",
      "genre_ids": [
        27
      ],
      "backdrop_path": "/aCVOmxNVy1lZ6ndKtjXpfFnMdiK.jpg",
      "adult": false,
      "overview": "A teacher visits the house of one of his students after the boy goes missing, only to have a horrifying excuse for his absence from school.",
      "release_date": "2000-02-11"
    },
    {
      "vote_average": 7.3,
      "vote_count": 31,
      "id": 41821,
      "video": false,
      "media_type": "movie",
      "title": "Ju Dou",
      "popularity": 4.312981,
      "poster_path": "/ejvX1lukPZZ10jatUWmKaXbhjGI.jpg",
      "original_language": "zh",
      "original_title": "菊豆",
      "genre_ids": [
        18,
        10749
      ],
      "backdrop_path": "/46DQk1tuBa6XFJYUMOMhK0MicWo.jpg",
      "adult": false,
      "overview": "A woman married to the brutal and infertile owner of a dye mill in rural China conceives a boy with her husband's nephew but is forced to raise her son as her husband's heir without revealing his parentage in this circular tragedy. Filmed in glowing technicolour, this tale of romantic and familial love in the face of unbreakable tradition is more universal than its setting.",
      "release_date": "1990-04-21"
    },
    {
      "vote_average": 5.5,
      "vote_count": 1,
      "id": 186914,
      "video": false,
      "media_type": "movie",
      "title": "Gang Master",
      "popularity": 1.636866,
      "poster_path": "/j1EUe7JfKb1WIArgzUlByzyAtI2.jpg",
      "original_language": "en",
      "original_title": "Bong Ju",
      "genre_ids": [
        28,
        10769
      ],
      "backdrop_path": "/wzd1pJgwxgnQ3nz200FeGAuWugl.jpg",
      "adult": false,
      "overview": "It has to do with a young clan member, Zhong Yuan, who is promoted to chief of the Dragon Gang after his adoptive father dies, only to be expelled when a letter arrives revealing him to be of Mongol birth, an awkward bit of news at a time when the Dragon Gang is actively fighting Mongol occupiers. In fact, Zhong soon learns that the Mongol general leading the anti-rebel campaign is actually his real father. Still, he persists in trying to get back into the good graces of the clan, eventually helping to ferret out a traitor in their midst.",
      "release_date": "1982-04-28"
    },
    {
      "vote_average": 0,
      "vote_count": 0,
      "id": 426240,
      "video": false,
      "media_type": "movie",
      "title": "The Price",
      "popularity": 1.358964,
      "poster_path": "/aDtoA8IHzTZ28d2UsQJB4fxD21I.jpg",
      "original_language": "en",
      "original_title": "Dara Ju",
      "genre_ids": [
        80,
        18
      ],
      "backdrop_path": null,
      "adult": false,
      "overview": "A young Nigerian-American financier struggles with love, family, and a prescription drug dependency as his ambitions steer him down a criminal path.",
      "release_date": "2017-03-13"
    },
    {
      "vote_average": 7,
      "vote_count": 2,
      "id": 171502,
      "video": false,
      "media_type": "movie",
      "title": "Beast Man Snow Man",
      "popularity": 1.977267,
      "poster_path": "/9nb42XqWVWVE58LbBRtVWYZ0lXC.jpg",
      "original_language": "ja",
      "original_title": "Jû jin yuki otoko",
      "genre_ids": [
        878,
        27
      ],
      "backdrop_path": "/8bHPYiYvqtmrgLF2IdIN5OIwrW5.jpg",
      "adult": false,
      "overview": "A yeti terrorizes people on top of Mount Fuji.",
      "release_date": "1955-08-13"
    },
    {
      "vote_average": 6.7,
      "vote_count": 219,
      "id": 11838,
      "video": false,
      "media_type": "movie",
      "title": "Ju-on: The Grudge",
      "popularity": 6.680603,
      "poster_path": "/mu7K4R7bcu4cFlaKrmm2r9qeTSI.jpg",
      "original_language": "ja",
      "original_title": "呪怨じゅおん",
      "genre_ids": [
        27
      ],
      "backdrop_path": "/wVxp3voKuZp7Wts19My5zRNxuOp.jpg",
      "adult": false,
      "overview": "A mysterious and vengeful spirit marks and pursues anybody who dares enter the house in which it resides.",
      "release_date": "2002-10-18"
    },
    {
      "original_name": "Gong An Ju Zhang",
      "id": 57190,
      "media_type": "tv",
      "name": "Gong An Ju Zhang",
      "vote_count": 0,
      "vote_average": 0,
      "poster_path": null,
      "first_air_date": "",
      "popularity": 1.000003,
      "genre_ids": [],
      "original_language": "en",
      "backdrop_path": null,
      "overview": "",
      "origin_country": []
    },
    {
      "vote_average": 6,
      "vote_count": 1,
      "id": 422135,
      "video": false,
      "media_type": "movie",
      "title": "Someone to Talk To",
      "popularity": 1.42668,
      "poster_path": "/roXid6fXRF2zT4HNYsfHPzXKyo2.jpg",
      "original_language": "zh",
      "original_title": "Yi ju ding yi wan ju",
      "genre_ids": [
        18
      ],
      "backdrop_path": null,
      "adult": false,
      "overview": "An adaptation of Liu Zhenyun’s award-winning novel One Sentence Worth Ten Thousand, produced by Bill Kong.  The novel, which won the Mao Dun Literature Prize after it was published in 2008, revolves around a divorced woman and her married younger brother and deals with loneliness and alienation in contemporary Chinese society.  The film marks the feature debut of award-winning short filmmaker Liu Yulin, who is adapting her father’s work. A New York University film graduate, Liu’s short film Door God (2014) won a silver medal at the 41st Student Academy Awards and was selected by Cannes.",
      "release_date": "2016-11-04"
    },
    {
      "vote_average": 5.8,
      "vote_count": 3,
      "id": 72681,
      "video": false,
      "media_type": "movie",
      "title": "The Ming Patriots",
      "popularity": 1.554242,
      "poster_path": "/yc6G1d88Pc5LteGhwGLFOUdT9Ry.jpg",
      "original_language": "zh",
      "original_title": "Zhong yuan biao ju",
      "genre_ids": [
        18,
        28
      ],
      "backdrop_path": null,
      "adult": false,
      "overview": "Bruce Li stars as a kung fu fighter who with a group friends defies the Ching Dynasty, using his martial arts and sense of honor he succeeds though not without some personal losses.",
      "release_date": "1976-01-01"
    },
    {
      "vote_average": 7.2,
      "vote_count": 30,
      "id": 38143,
      "video": false,
      "media_type": "movie",
      "title": "The Story of Qiu Ju",
      "popularity": 3.492061,
      "poster_path": "/aiT5vWsrSC9dNKxIjoR9T4NRnE1.jpg",
      "original_language": "zh",
      "original_title": "秋菊打官司",
      "genre_ids": [
        35,
        18
      ],
      "backdrop_path": "/iQ8Bok1cKNonTbm0hA8VfHuEqKa.jpg",
      "adult": false,
      "overview": "The Story of Qiu Ju is a 1992 Chinese comedy-drama film. The film was directed by Zhang Yimou and, as in many of his films, stars Gong Li in the title role. The screenplay is an adaption of Chen Yuanbin's novella The Wan Family's Lawsuit. The film tells the story of a peasant woman, Qiu Ju, who lives in a rural area of China. When her husband is kicked in the groin by the village head, Qiu Ju, despite her pregnancy, travels to a nearby town, and later a big city to deal with its bureaucrats and find justice.",
      "release_date": "1992-10-02"
    },
    {
      "vote_average": 5.9,
      "vote_count": 38,
      "id": 44203,
      "video": false,
      "media_type": "movie",
      "title": "Ju-on: The Curse 2",
      "popularity": 2.994726,
      "poster_path": "/tWb8rDvneXGqmzpEVodXreIxEnT.jpg",
      "original_language": "ja",
      "original_title": "呪怨2 ビデオ版",
      "genre_ids": [
        27
      ],
      "backdrop_path": "/aCVOmxNVy1lZ6ndKtjXpfFnMdiK.jpg",
      "adult": false,
      "overview": "On his request, the sensitive sister of a real estate agent visits a house he intends to put on sell, only to cross paths with its resident curse.",
      "release_date": "2000-03-25"
    },
    {
      "vote_average": 0,
      "vote_count": 0,
      "id": 364541,
      "video": false,
      "media_type": "movie",
      "title": "Live in Peace",
      "popularity": 1.002327,
      "poster_path": null,
      "original_language": "en",
      "original_title": "An ju",
      "genre_ids": [],
      "backdrop_path": null,
      "adult": false,
      "overview": "Winner of the Golden Rooster for Best Film in 1998",
      "release_date": "1997-01-01"
    },
    {
      "vote_average": 0,
      "vote_count": 0,
      "id": 364527,
      "video": false,
      "media_type": "movie",
      "title": "Neighbor",
      "popularity": 1,
      "poster_path": null,
      "original_language": "en",
      "original_title": "Lin ju",
      "genre_ids": [],
      "backdrop_path": null,
      "adult": false,
      "overview": "Winner of the Golden Rooster Award in 1982 for Best Film",
      "release_date": "1981-01-01"
    },
    {
      "vote_average": 7.4,
      "vote_count": 27,
      "id": 229304,
      "video": false,
      "media_type": "movie",
      "title": "Han Gong-ju",
      "popularity": 3.19456,
      "poster_path": "/pLtnCdlSDD2w3T0d26J8FcVicIc.jpg",
      "original_language": "ko",
      "original_title": "한공주",
      "genre_ids": [
        18
      ],
      "backdrop_path": "/z4Gi6AhWo4nkyNKUJs6RBncP1Wh.jpg",
      "adult": false,
      "overview": "After transferring to a new school, a teenage girl finds her troubled past exposed when she innocently signs up for a singing club.",
      "release_date": "2015-05-08"
    },
    {
      "vote_average": 0,
      "vote_count": 0,
      "id": 348181,
      "video": false,
      "media_type": "movie",
      "title": "Ju-Jitsu",
      "popularity": 1.002684,
      "poster_path": null,
      "original_language": "en",
      "original_title": "Ju-Jitsu",
      "genre_ids": [
        28,
        99
      ],
      "backdrop_path": null,
      "adult": false,
      "overview": "Many demonstrations of the art of Jiu Jitsu are given, and as evidence that this is not a passing fad intended only for the amusement of the public there is illustrated in very thrilling manner how several footpads follow two girls and then in a deserted section of the road make an attack, which is successfully foiled and the perpetrators taken into custody. Splendid action and good photographic quality. (Gaumont catalogue)",
      "release_date": "1907-08-31"
    },
    {
      "vote_average": 6.9,
      "vote_count": 3321,
      "id": 8844,
      "video": false,
      "media_type": "movie",
      "title": "Jumanji",
      "popularity": 263.146751,
      "poster_path": "/8wBKXZNod4frLZjAKSDuAcQ2dEU.jpg",
      "original_language": "en",
      "original_title": "Jumanji",
      "genre_ids": [
        12,
        14,
        10751
      ],
      "backdrop_path": "/7k4zEgUZbzMHawDaMc9yIkmY1qR.jpg",
      "adult": false,
      "overview": "When siblings Judy and Peter discover an enchanted board game that opens the door to a magical world, they unwittingly invite Alan -- an adult who's been trapped inside the game for 26 years -- into their living room. Alan's only hope for freedom is to finish the game, which proves risky as all three find themselves running from giant rhinoceroses, evil monkeys and other terrifying creatures.",
      "release_date": "1995-12-15"
    },
    {
      "vote_average": 5,
      "vote_count": 1,
      "id": 409489,
      "video": false,
      "media_type": "movie",
      "title": "Singular Cay",
      "popularity": 1.305711,
      "poster_path": "/xGKUjegfQIp7ZgaHuEDuNoHRzMy.jpg",
      "original_language": "cn",
      "original_title": "Yì du mí jú",
      "genre_ids": [
        27
      ],
      "backdrop_path": null,
      "adult": false,
      "overview": "A doctor moves his family into a mansion. His wife hears weird noises at midnight, then his daughter disappears mysteriously. His detective friend begins to look into this case, only to suspect everyone in this family is somehow complicit.",
      "release_date": "2012-12-14"
    }
  ]
}